혹평
하락
적자
손실
주춤
사망
급락
출국 금지
자금 회수
영업 정지
수입 금지
비판
성장률 하향
성장율 하향
성장률 하락
성장율 하락
불안
영업 이익 감소
영업 손실
침체
실적 악화
문제
실적 쇼크
사임
성장세 둔화
감소
악화
영장 발부
구속 영장
부실 어음
사고
감리
압수 수색
논란
평가 하락
최저 실적
매출 감소
후퇴
순손실
적자 전환