060310|3S
013340|AJS
054620|AP시스템
090470|AST젯텍
032040|C&S자산관리
130960|CJ E&M
035760|CJ오쇼핑
051500|CJ프레시웨이
058820|CMG제약
023460|CNH
065770|CS
159910|CS엘쏠라
056340|CU전자
068790|DMS
009730|DS제강
037370|EG
079190|EMW
083450|GST
028150|GS홈쇼핑
053870|GT&T
041590|GemTech
032800|G러닝
078150|HB테크놀러지
036640|HRS
095340|ISC
099520|ITX시큐리티
067290|JW중외신약
035900|JYP Ent.
024120|KB오토시스
021320|KCC건설
036670|KCI
068060|KCW
151860|KG ETS
046440|KG모빌리언스
035600|KG이니시스
060720|KH바텍
083470|KJ프리텍
122450|KMH
058400|KNN
114450|KPX생명과학
036030|KTH
043610|KT뮤직
060370|KT서브마린
079950|LIG에이디피
086960|MDS테크
065150|MPK
030190|NICE평가정보
036490|OCI머티리얼즈
024940|PN풍년
091340|S&K폴리텍
950110|SBI액시즈
019550|SBI인베스트먼트
046140|SBS콘텐츠허브
099220|SDN
040610|SG&G
049470|SGA
090730|SIMPAC METALLOY
057500|SKC 솔믹스
033630|SK브로드밴드
066270|SK컴즈
048550|SM C&C
099440|SMEC
051980|SNH
036540|STS반도체
032540|TJ미디어
048770|TPC
057030|YBM시사닷컴
040300|YTN
052220|iMBC
079940|가비아
078890|가온미디어
030270|가희
024840|갑을메탈
094480|갤럭시아컴즈
063080|게임빌
041140|게임하이
039240|경남스틸
053950|경남제약
011040|경동제약
139050|경봉
043220|경원산업
024910|경창산업
089890|고려반도체
049720|고려신용정보
014570|고려제약
098460|고영
121440|골프존
014200|광림
026910|광진실업
090150|광진윈텍
053270|구영테크
066620|국보디자인
043650|국순당
006050|국영지앤엠
078130|국일제지
044180|국제디와이
053740|국제엘렉트릭
019010|그랜드백화점
900070|글로벌에스엠
053260|금강철강
058370|금성테크
130500|금호엔티
036190|금화피에스시
035460|기산텔레콤
151910|나노스
121600|나노신소재
039860|나노엔텍
091970|나노캠텍
010670|나노트로닉스
051490|나라엠앤디
089600|나스미디어
138610|나이벡
130580|나이스디앤비
036800|나이스정보통신
091590|남화토건
095660|네오위즈게임즈
104200|네오위즈인터넷
042420|네오위즈홀딩스
085910|네오티스
092730|네오팜
101400|네오피델리티
153460|네이블
007390|네이처셀
033640|네패스
087730|네패스신소재
073070|넥센테크
081970|넥스지
089140|넥스턴
139670|넥스트리밍
137940|넥스트아이
092600|넥스트칩
031390|녹십자셀
054050|농우바이오
040160|누리텔레콤
069140|누리플랜
126870|뉴로스
060260|뉴보텍
012340|뉴인텍
900100|뉴프라이드
085670|뉴프렉스
053290|능률교육
119860|다나와
064260|다날
093640|다믈멀티미디어
039560|다산네트웍스
043710|다스텍
032190|다우데이타
068240|다원시스
077280|다윈텍
035720|다음
033830|대구방송
012860|대동
020400|대동금속
008830|대동기어
048470|대동스틸
004780|대륙제관
017650|대림제지
007720|대명엔터프라이즈
078140|대봉엘에스
036480|대성미생물
025440|대성엘텍
027830|대성창투
104040|대성파인텍
020180|대신정보통신
045390|대아티아이
108380|대양전기공업
006580|대양제지
048910|대원미디어
005710|대원산업
120240|대정화금
003310|대주산업
078600|대주전자재료
065690|대진디엠피
096350|대창솔루션
131220|대한과학
010170|대한광통신
054670|대한뉴팜
023910|대한약품
021040|대호피앤씨
021045|대호피앤씨우
067080|대화제약
077360|덕산하이메탈
017680|데코네티션
067990|도이치모터스
100130|동국S&C
005160|동국산업
075970|동국알앤에스
086450|동국제약
099410|동방선기
045890|동부라이텍
090710|동부로봇
026960|동서
013450|동성하이켐
033500|동성화인텍
025950|동신건설
088130|동아엘텍
041930|동아화성
038500|동양시멘트
060380|동양에스텍
079960|동양이엔피
104460|동양피엔에프
088910|동우
013120|동원개발
109860|동일금속
032960|동일기연
023790|동일철강
005290|동진쎄미켐
025900|동화홀딩스
078590|두올산업
073190|듀오백코리아
030350|드래곤플라이
046400|디브이에스
066670|디스플레이텍
074130|디아이디
109740|디에스케이
066900|디에이피
127120|디엔에이링크
092070|디엔에프
101000|디엠씨
039840|디오
108860|디오텍
079810|디이엔티
113810|디젠스
043360|디지아이
115450|디지탈아리아
106520|디지탈옵틱
068930|디지털대성
091690|디지텍시스템
033130|디지틀조선
033310|디케이디앤아이
105740|디케이락
131180|딜리
042510|라온시큐어
050120|라이브플렉스
141080|레고켐바이오
060300|레드로버
038390|레드캡투어
047440|레이젠
004790|렉스엘이앤지
026040|로만손
090360|로보스타
016170|로엔
071280|로체시스템즈
038060|루멘스
082800|루미마이크로
051170|루보
085370|루트로닉
042940|르네코
058470|리노공업
039980|리노스
012700|리드코프
131100|리켐
014470|리홈쿠첸
042500|링네트
098120|마이크로컨텍솔
038290|마크로젠
005990|매일유업
093520|매커스
141070|맥스로텍
072870|메가스터디
086900|메디톡스
078160|메디포스트
065650|메디프론
140410|메지온
059210|메타바이오메드
096640|멜파스
149940|모다정보통신
080160|모두투어
110310|모린스
100030|모바일리더
101330|모베이스
033200|모아텍
006920|모헨즈
001810|무림SP
086980|미디어플렉스
095500|미래나노텍
049950|미래컴퍼니
059090|미코
018700|바른손
035620|바른손게임즈
064520|바른전자
053030|바이넥스
084990|바이로메드
064550|바이오니아
052260|바이오랜드
038460|바이오스마트
041830|바이오스페이스
086040|바이오톡스텍
043150|바텍
046310|백금T&A
066110|백산OPC
036620|버추얼텍
019660|베리타스
014100|보령메디앙스
006910|보성파워텍
025270|부산방직
008470|부스타
100120|뷰웍스
064480|브리지텍
033560|블루콤
052900|비아이이엠티
141000|비아트론
045970|비에스이
090460|비에이치
083650|비에이치아이
086670|비엠티
082920|비츠로셀
054220|비츠로시스
042370|비츠로테크
032850|비트컴퓨터
032680|비티씨정보
032685|비티씨정보우
093190|빅솔론
065450|빅텍
069540|빛과전자
072950|빛샘전자
143240|사람인에이치알
123260|사파이어테크놀로지
016100|산성앨엔에스
100090|삼강엠앤티
122350|삼기오토모티브
014970|삼륭물산
158380|삼목강업
018310|삼목에스폼
053700|삼보모터스
009620|삼보산업
023600|삼보판지
111870|삼본정밀전자
009300|삼아제약
054540|삼영엠텍
065570|삼영이엔씨
073640|삼원테크
032280|삼일
002290|삼일기업공사
037460|삼지전자
032750|삼진
054090|삼진엘앤디
000250|삼천당제약
024950|삼천리자전거
017480|삼현철강
046390|삼화네트웍스
027580|상보
091580|상신이디피
089980|상아프론테크
042600|새로닉스
065620|샤인
038070|서린바이오
006730|서부T&D
079650|서산
100660|서암기계공업
046890|서울반도체
036120|서울신용평가
063170|서울옥션
027040|서울전자통신
018680|서울제약
093920|서원인텍
122690|서진오토모티브
011370|서한
065710|서호전기
033790|서화정보통신
035890|서희건설
003100|선광
014620|성광벤드
037350|성도이엔지
081580|성우전자
045300|성우테크론
015750|성우하이텍
080470|성창오토텍
043260|성호전자
053060|세동
017510|세명전기
081220|세미텍
011560|세보엠이씨
096690|세우테크
100700|세운메디칼
024830|세원물산
039310|세중
080440|세진전자
067770|세진티에스
053450|세코닉스
158310|세호로보트
049180|셀루메드
068270|셀트리온
068760|셀트리온제약
053110|소리바다
064820|소셜미디어99
052190|소프트맥스
054920|소프트포럼
066910|손오공
043100|솔고바이오
070300|솔라시아
035610|솔본
036830|솔브레인
039230|솔브레인이엔지
084180|수성
094840|슈프리마
115570|스타플렉스
066430|스템싸이언스
087220|스틸플라워
013810|스페코
039670|스포츠서울
049830|승일
052300|승화산업
111610|승화프리텍
020710|시공테크
033170|시그네틱스
025320|시노펙스
131090|시큐브
001000|신라섬유
025870|신라에스지
065350|신성델타테크
086830|신양
017000|신원종합개발
012790|신일제약
138070|신진에스엠
056700|신화인터텍
007820|신흥기계
108320|실리콘웍스
082930|실리콘화일
036710|심텍
012650|쌍용건설
010280|쌍용정보통신
037760|쎄니트
136510|쎄미시스코
099320|쎄트렉아이
049960|쎌바이오텍
050890|쏠리드
038340|쓰리원
110500|쓰리피시스템
099830|씨그널정보통신
066790|씨씨에스
086200|씨앤비텍
039530|씨앤케이인터
021880|씨엑스씨종합캐피탈
115530|씨엔플러스
115480|씨유메디칼
096530|씨젠
101240|씨큐브
060590|씨티씨바이오
036170|씨티엘
013990|아가방컴퍼니
123860|아나패스
050320|아남정보기술
041060|아라온테크
072770|아로마소프트
058220|아리온
052710|아모텍
074430|아미노로직스
092040|아미코젠
083930|아바코
149950|아바텍
036010|아비코전자
050860|아세아텍
060240|아이넷스쿨
143160|아이디스
054800|아이디스홀딩스
078780|아이디에스
026260|아이디엔
060570|아이리버
099190|아이센스
040910|아이씨디
068940|아이씨케이
052860|아이앤씨
069920|아이에스이커머스
038880|아이에이
101390|아이엠
114810|아이원스
031310|아이즈비전
059100|아이컴포넌트
052460|아이크래프트
089530|아이테스트
119830|아이텍반도체
032080|아즈텍WB
056730|아큐픽스
023890|아트라스BX
067160|아프리카TV
001540|안국약품
053800|안랩
096610|알에프세미
061040|알에프텍
123750|알톤스포츠
117670|알파칩스
022220|애강리메텍
052790|액토즈소프트
131400|액트
030960|양지사
102120|어보브반도체
067630|에너지솔루션
019990|에너토크
035290|에듀박스
025980|에머슨퍼시픽
041440|에버다임
070480|에버테크노
038680|에스넷
121890|에스디시스템
097780|에스맥
042110|에스씨디
065420|에스아이리소스
103230|에스앤더블류
900080|에스앤씨엔진그룹
101490|에스앤에스텍
095910|에스에너지
031330|에스에이엠티
060540|에스에이티
112240|에스에프씨
056190|에스에프에이
080000|에스엔유
041510|에스엠
114570|에스이티아이
096630|에스코넥
069510|에스텍
041910|에스텍파마
039440|에스티아이
098660|에스티오
052020|에스티큐브
050760|에스폴리텍
058610|에스피지
043340|에쎈테크
060900|에어파크
054630|에이디칩스
031860|에이모션
003800|에이스침대
088800|에이스테크
071930|에이스하이텍
028300|에이치엘비
028305|에이치엘비우
071670|에이테크솔루션
045660|에이텍
021080|에이티넘인베스트
043580|에임하이
038870|에코에너지
086520|에코프로
038110|에코플라스틱
073540|에프알텍
036810|에프에스티
065160|에프티이앤이
054940|엑사이엔씨
950130|엑세스바이오(Reg.S)
065170|엔알디
095300|엔에스브이
069410|엔텔스
068150|엔티피아
048830|엔피케이
096870|엘디티
061970|엘비세미콘
066970|엘앤에프
073110|엘엠에스
083310|엘오티베큠
170920|엘티씨
138690|엘티에스
058630|엠게임
019590|엠벤처투자
097520|엠씨넥스
009780|엠에스씨
123040|엠에스오토텍
033160|엠케이전자
074000|엠텍비젼
050540|엠피씨
090740|연이정보통신
002680|영남제분
007530|영신금속
051390|영우통신
036180|영인프런티어
053330|영진인프라
036560|영풍정밀
036000|예림당
053280|예스24
045060|오공
080520|오디텍
039830|오로라
046120|오르비텍
014940|오리엔탈정공
065500|오리엔트정공
010470|오리콤
053980|오상자이엘
052420|오성엘에스티
039200|오스코텍
031510|오스템
048260|오스템임플란트
067170|오텍
049480|오픈베이스
036630|온세텔레콤
057540|옴니시스템
057680|옴니텔
082210|옵트론텍
109080|옵티시스
052770|와이디온라인
122990|와이솔
067900|와이엔텍
155650|와이엠씨
040670|와이즈파워
019210|와이지-원
122870|와이지엔터테인먼트
079000|와토스코리아
900180|완리
089230|용현BM
114630|우노앤컴퍼니
032820|우리기술
041190|우리기술투자
115440|우리넷
046970|우리로광통신
072470|우리산업
153490|우리이앤엘
082850|우리이티아이
037400|우리조명지주
101170|우림기계
011080|우성I&C
066590|우수AMS
101970|우양에이치씨
046940|우원개발
052270|우전앤한단
065680|우주일렉트로
018620|우진비앤지
004320|울트라건설
004325|울트라건설우
032940|원익
030530|원익IPS
074600|원익QnC
104830|원익머트리얼즈
014190|원익큐브
012620|원일특강
008370|원풍
008290|원풍물산
101160|월덱스
095270|웨이브일렉트로
900130|웨이포트
036260|웰메이드
065950|웰크론
114190|웰크론강원
076080|웰크론한텍
069080|웹젠
039790|위노바
044340|위닉스
112040|위메이드
038620|위즈정보기술
036090|위지트
136540|윈스테크넷
097800|윈팩
083640|윈포넷
044480|유니더스
036200|유니셈
018000|유니슨
011320|유니크
086390|유니테스트
048430|유라테크
089850|유비벨록스
032620|유비케어
078070|유비쿼스
053810|유비프리시젼
024800|유성티엔에스
054930|유신
069330|유아이디
049520|유아이엘
036500|유원컴텍
023410|유진기업
056080|유진로봇
084370|유진테크
044960|이-글 벳
039020|이건창호
060230|이그잭스
067920|이글루시큐리티
109960|이너스텍
073490|이노와이어리스
080420|이노칩
088390|이녹스
053350|이니텍
033110|이디
041520|이라이콤
054210|이랜텍
065440|이루온
115610|이미지스
080010|이상네트웍스
086890|이수앱지스
047560|이스트소프트
900110|이스트아시아홀딩스
067010|이씨에스
102710|이엔에프테크놀로지
094190|이엘케이
123570|이엠넷
095190|이엠코리아
091120|이엠텍
039030|이오테크닉스
088290|이원컴포텍
033600|이젠텍
035810|이지바이오
058530|이큐스앤자루
092130|이크레더블
016250|이테크건설
078020|이트레이드증권
096040|이트론
134060|이퓨쳐
001840|이화공영
024810|이화전기
060150|인선이엔티
033230|인성정보
037330|인지디스플레
049070|인탑스
119610|인터로조
017250|인터엠
035080|인터파크
051370|인터플렉스
023430|인테그레이티드에너지
064290|인텍플러스
048530|인트론바이오
115310|인포바인
039290|인포뱅크
036220|인포피아
041020|인프라웨어
071200|인피니트헬스케어
101930|인화정공
078940|일경산업개발
068330|일신바이오
058450|일야
019540|일지테크
094820|일진에너지
049550|잉크테크
043910|자연과환경
032860|자원
090120|잘만테크
049630|재영솔루텍
065530|전파기지국
040420|정상제이엘에스
045510|정원엔시스
095700|제넥신
123330|제닉
159580|제로투세븐
147830|제룡산업
033100|제룡전기
019570|제미니투자
079370|제우스
054950|제이브이엠
035480|제이비어뮤즈먼트
137950|제이씨케미칼
033320|제이씨현
126880|제이엔케이히터
033050|제이엠아이
094970|제이엠티
058420|제이웨이
036420|제이콘텐트리
089790|제이티
052670|제일바이오
023440|제일제강
038010|제일테크노스
080220|제주반도체
083660|젠트로
082270|젬백스
044060|조광ILI
034940|조아제약
101730|조이맥스
067000|조이시티
033340|좋은사람들
036930|주성엔지니어링
900060|중국식품포장
072020|중앙백신
000440|중앙에너비스
054180|중앙오션
155960|지디
032790|지아이블루
051160|지어소프트
053050|지에스이
119850|지엔씨에너지
065060|지엔코
018290|지엠피
018120|진로발효
109820|진매트릭스
086060|진바이오텍
036890|진성티이씨
007370|진양제약
085660|차바이오앤
900040|차이나그레이트
900120|차이나킹
900090|차이나하오란
094850|참좋은레져
074150|창해에너지어링
111820|처음앤씨
096240|청담러닝
013720|청보산업
047820|초록뱀
016920|카스
066410|캔들미디어
050110|캠시스
078340|컴투스
063440|케이디미디어
029480|케이디씨
043290|케이맥
131370|케이비게임앤앱스스팩
115500|케이씨에스
089150|케이씨티
025880|케이씨피드
093320|케이아이엔엑스
065940|케이에스씨비
073010|케이에스피
105330|케이엔더블유
039420|케이엘넷
083550|케이엠
032500|케이엠더블유
122800|케이티롤
024880|케이피에프
042040|케이피엠테크
054410|케이피티
089010|켐트로닉스
052400|코나아이
094860|코닉글로리
046070|코다코
047770|코데즈컴바인
080530|코디에스
078650|코렌
104540|코렌텍
027050|코리아나
101670|코리아에스이
123410|코리아에프티
036690|코맥스
049430|코메론
041960|코미팜
069110|코스온
048870|코아로직
038530|코아크로스
029960|코엔텍
102940|코오롱생명과학
056000|코원
056360|코위버
121850|코이즈
015710|코콤
052330|코텍
126600|코프라
060280|큐렉소
040350|큐로컴
051780|큐로홀딩스
065560|큐브스
066310|큐에스아이
016600|큐캐피탈
067280|크레듀
043590|크로바하이텍
082660|크루셜엠스
114120|크루셜텍
083790|크리스탈
045520|크린앤사이언스
054780|키이스트
019770|탑금속
065130|탑엔지니어링
023160|태광
036210|태산엘시디
053620|태양
072520|태양기전
044490|태웅
039850|태창파로스
032420|터보테크
053320|테라리소스
123100|테라세미콘
066700|테라젠이텍스
095610|테스
089030|테크윙
038540|텍셀네트컴
054450|텔레칩스
091440|텔레필드
051360|토비스
045340|토탈소프트
057880|토필드
108230|톱텍
079970|투비소프트
052290|트레이스
026150|특수건설
037340|티모이앤엠
121800|티브이로직
064760|티씨케이
066350|티에스엠텍
131290|티에스이
062860|티엘아이
104480|티케이케미칼
081150|티플랙스
130740|티피씨글로벌
084730|팅크웨어
046210|파나진
034230|파라다이스
033540|파라텍
043200|파루
037070|파세코
047310|파워로직스
170790|파이오링크
049120|파인디앤씨
038950|파인디지털
106240|파인테크닉스
028040|파캔OPC
091700|파트론
043090|팜스웰바이오
027710|팜스토리
068050|팬엔터테인먼트
043370|평화정공
119500|포메탈
016670|포비스티앤씨
022100|포스코 ICT
009520|포스코엠텍
003670|포스코켐텍
078860|포인트아이
141020|포티스
032980|폴리비전
005670|푸드웰
094940|푸른기술
007330|푸른저축은행
093380|풍강
023900|풍국주정
035200|프럼파스트
053610|프로텍
073570|프롬써어티
053160|프리엠스
060910|프리젠
075130|플랜티넷
023770|플레이위드
065270|플렉스컴
032580|피델릭스
051380|피씨디렉트
131390|피앤이솔루션
054340|피앤텔
065180|피에스앤지
024850|피에스엠씨
031980|피에스케이
002230|피에스텍
137400|피엔티
082390|피엘에이
128660|피제이메탈
006140|피제이전자
064800|필링크
033290|필코전자
123420|하나그린스팩
067310|하나마이크론
136480|하림
024660|하림홀딩스
013030|하이록코리아
126700|하이비젼시스템
106080|하이소닉
066980|하이쎌
131030|하이제1호스팩
106190|하이텍팜
066130|하츠
044780|한광
004590|한국가구
039340|한국경제TV
034950|한국기업평가
060250|한국사이버결제
025550|한국선재
017890|한국알콜
033430|한국자원투자개발
063570|한국전자금융
041460|한국전자인증
101680|한국정밀기계
039740|한국정보공학
025770|한국정보통신
023760|한국캐피탈
054040|한국컴퓨터
021650|한국큐빅
053590|한국테크놀로지
053595|한국테크놀로지우
034830|한국토지신탁
037230|한국팩키지
030520|한글과컴퓨터
052600|한네트
092460|한라IMS
047080|한빛소프트
037950|한성엘컴텍
099660|한솔신텍
070590|한솔인티큐브
042520|한스바이오메드
078350|한양디지텍
045100|한양이엔지
046110|한일네트웍스
024740|한일단조
005860|한일사료
123840|한일진공
007770|한일화학
061460|한진피앤씨
079170|한창산업
102210|해덕파워웨이
034810|해성산업
008800|행남자기
054300|헤스본
048410|현대아이비티
026180|현대정보기술
039010|현대통신
092300|현우산업
053660|현진소재
060560|홈센타
064240|홈캐스트
039610|화성
126640|화신정공
086250|화신테크
061250|화일약품
134780|화진
097870|효성오앤비
050090|휘닉스소재
115160|휴맥스
028080|휴맥스홀딩스
064090|휴바이론
065510|휴비츠
084110|휴온스
024060|흥구석유
010240|흥국
037440|희림